EESchema Schematic File Version 4
EELAYER 30 0
EELAYER END
$Descr A4 11693 8268
encoding utf-8
Sheet 1 1
Title ""
Date ""
Rev ""
Comp ""
Comment1 ""
Comment2 ""
Comment3 ""
Comment4 ""
$EndDescr
$Comp
L Device:Q_NMOS_GSD Q1
U 1 1 5E15BF0D
P 2800 5000
F 0 "Q1" H 3006 5046 50  0000 L CNN
F 1 "Q_NMOS_GDS" H 3006 4955 50  0000 L CNN
F 2 "Package_TO_SOT_SMD:SOT-23" H 3000 5100 50  0001 C CNN
F 3 "~" H 2800 5000 50  0001 C CNN
	1    2800 5000
	1    0    0    -1  
$EndComp
Text Label 2500 5000 2    50   ~ 0
Gate
Text Label 2900 4700 0    50   ~ 0
Drain
Text Label 2900 5285 0    50   ~ 0
Source
Wire Wire Line
	2900 5200 2900 5285
$Comp
L Connector_Generic:Conn_01x02 J2
U 1 1 5E164601
P 2690 4065
F 0 "J2" V 2654 3877 50  0000 R CNN
F 1 "Conn_01x02" V 2563 3877 50  0001 R CNN
F 2 "Connector_JST:JST_PH_B2B-PH-K_1x02_P2.00mm_Vertical" H 2690 4065 50  0001 C CNN
F 3 "~" H 2690 4065 50  0001 C CNN
	1    2690 4065
	0    -1   -1   0   
$EndComp
$Comp
L power:+5V #PWR0101
U 1 1 5E1659A6
P 2545 4650
F 0 "#PWR0101" H 2545 4500 50  0001 C CNN
F 1 "+5V" H 2560 4823 50  0000 C CNN
F 2 "" H 2545 4650 50  0001 C CNN
F 3 "" H 2545 4650 50  0001 C CNN
	1    2545 4650
	-1   0    0    1   
$EndComp
$Comp
L power:GND #PWR0102
U 1 1 5E166553
P 2900 5285
F 0 "#PWR0102" H 2900 5035 50  0001 C CNN
F 1 "GND" H 2905 5112 50  0000 C CNN
F 2 "" H 2900 5285 50  0001 C CNN
F 3 "" H 2900 5285 50  0001 C CNN
	1    2900 5285
	1    0    0    -1  
$EndComp
$Comp
L Device:R R1
U 1 1 5E166C43
P 2155 5000
F 0 "R1" V 1948 5000 50  0000 C CNN
F 1 "1k" V 2039 5000 50  0000 C CNN
F 2 "Resistor_SMD:R_0805_2012Metric_Pad1.15x1.40mm_HandSolder" V 2085 5000 50  0001 C CNN
F 3 "~" H 2155 5000 50  0001 C CNN
	1    2155 5000
	0    1    1    0   
$EndComp
Wire Wire Line
	2305 5000 2600 5000
Text Label 1850 5000 2    50   ~ 0
Fan_Control
Wire Wire Line
	2005 5000 1885 5000
Text Label 4635 2895 2    50   ~ 0
Fan_Control
Wire Wire Line
	4790 2895 4635 2895
$Comp
L Connector:Raspberry_Pi_2_3 J1
U 1 1 5E15951C
P 5590 3295
F 0 "J1" H 6100 4590 50  0000 C CNN
F 1 "Raspberry_Pi_2_3" H 4950 4590 50  0000 C CNN
F 2 "Connector_PinSocket_2.54mm:PinSocket_2x20_P2.54mm_Vertical" H 5590 3295 50  0001 C CNN
F 3 "https://www.raspberrypi.org/documentation/hardware/raspberrypi/schematics/rpi_SCH_3bplus_1p0_reduced.pdf" H 5590 3295 50  0001 C CNN
	1    5590 3295
	1    0    0    -1  
$EndComp
$Comp
L Device:C C3
U 1 1 5E16E589
P 2300 2200
F 0 "C3" H 2415 2246 50  0000 L CNN
F 1 "10uF" H 2415 2155 50  0000 L CNN
F 2 "Capacitor_SMD:C_0805_2012Metric_Pad1.15x1.40mm_HandSolder" H 2338 2050 50  0001 C CNN
F 3 "~" H 2300 2200 50  0001 C CNN
	1    2300 2200
	1    0    0    -1  
$EndComp
$Comp
L Device:C C4
U 1 1 5E170396
P 2800 2200
F 0 "C4" H 2915 2246 50  0000 L CNN
F 1 "100nF" H 2915 2155 50  0000 L CNN
F 2 "Capacitor_SMD:C_0805_2012Metric_Pad1.15x1.40mm_HandSolder" H 2838 2050 50  0001 C CNN
F 3 "~" H 2800 2200 50  0001 C CNN
	1    2800 2200
	1    0    0    -1  
$EndComp
Wire Wire Line
	2300 2050 2300 2000
Wire Wire Line
	2300 2000 2800 2000
Wire Wire Line
	2800 2000 2800 2050
Wire Wire Line
	2300 2350 2300 2400
Wire Wire Line
	2300 2400 2800 2400
Wire Wire Line
	2800 2400 2800 2350
$Comp
L power:+5V #PWR0103
U 1 1 5E172896
P 2300 1900
F 0 "#PWR0103" H 2300 1750 50  0001 C CNN
F 1 "+5V" H 2315 2073 50  0000 C CNN
F 2 "" H 2300 1900 50  0001 C CNN
F 3 "" H 2300 1900 50  0001 C CNN
	1    2300 1900
	1    0    0    -1  
$EndComp
$Comp
L power:GND #PWR0104
U 1 1 5E1731A1
P 2300 2500
F 0 "#PWR0104" H 2300 2250 50  0001 C CNN
F 1 "GND" H 2305 2327 50  0000 C CNN
F 2 "" H 2300 2500 50  0001 C CNN
F 3 "" H 2300 2500 50  0001 C CNN
	1    2300 2500
	1    0    0    -1  
$EndComp
Wire Wire Line
	2300 2500 2300 2400
Connection ~ 2300 2400
Wire Wire Line
	2300 2000 2300 1900
Connection ~ 2300 2000
$Comp
L power:+5V #PWR0107
U 1 1 5E17A1C0
P 5390 1870
F 0 "#PWR0107" H 5390 1720 50  0001 C CNN
F 1 "+5V" H 5405 2043 50  0000 C CNN
F 2 "" H 5390 1870 50  0001 C CNN
F 3 "" H 5390 1870 50  0001 C CNN
	1    5390 1870
	1    0    0    -1  
$EndComp
$Comp
L power:+3.3V #PWR0108
U 1 1 5E17FF6E
P 5690 1870
F 0 "#PWR0108" H 5690 1720 50  0001 C CNN
F 1 "+3.3V" H 5705 2043 50  0000 C CNN
F 2 "" H 5690 1870 50  0001 C CNN
F 3 "" H 5690 1870 50  0001 C CNN
	1    5690 1870
	1    0    0    -1  
$EndComp
$Comp
L power:GND #PWR0109
U 1 1 5E180CD7
P 5190 4760
F 0 "#PWR0109" H 5190 4510 50  0001 C CNN
F 1 "GND" H 5195 4587 50  0000 C CNN
F 2 "" H 5190 4760 50  0001 C CNN
F 3 "" H 5190 4760 50  0001 C CNN
	1    5190 4760
	1    0    0    -1  
$EndComp
Wire Wire Line
	5190 4760 5190 4720
Wire Wire Line
	5190 4720 5290 4720
Wire Wire Line
	5290 4720 5290 4595
Connection ~ 5190 4720
Wire Wire Line
	5190 4720 5190 4595
Wire Wire Line
	5290 4720 5390 4720
Wire Wire Line
	5390 4720 5390 4595
Connection ~ 5290 4720
Wire Wire Line
	5390 4720 5490 4720
Wire Wire Line
	5490 4720 5490 4595
Connection ~ 5390 4720
Wire Wire Line
	5490 4720 5590 4720
Wire Wire Line
	5590 4720 5590 4595
Connection ~ 5490 4720
Wire Wire Line
	5590 4720 5690 4720
Wire Wire Line
	5690 4720 5690 4595
Connection ~ 5590 4720
Wire Wire Line
	5690 4720 5790 4720
Wire Wire Line
	5790 4720 5790 4595
Connection ~ 5690 4720
Wire Wire Line
	5790 4720 5890 4720
Wire Wire Line
	5890 4720 5890 4595
Connection ~ 5790 4720
Wire Wire Line
	5390 1995 5390 1935
Wire Wire Line
	5390 1935 5490 1935
Wire Wire Line
	5490 1935 5490 1995
Connection ~ 5390 1935
Wire Wire Line
	5390 1935 5390 1870
Wire Wire Line
	5690 1870 5690 1935
Wire Wire Line
	5690 1935 5790 1935
Wire Wire Line
	5790 1935 5790 1995
Connection ~ 5690 1935
Wire Wire Line
	5690 1935 5690 1995
$Comp
L Device:LED D1
U 1 1 5E194057
P 9355 2685
F 0 "D1" H 9348 2430 50  0000 C CNN
F 1 "LED" H 9348 2521 50  0000 C CNN
F 2 "LED_SMD:LED_0805_2012Metric_Pad1.15x1.40mm_HandSolder" H 9355 2685 50  0001 C CNN
F 3 "~" H 9355 2685 50  0001 C CNN
	1    9355 2685
	-1   0    0    1   
$EndComp
$Comp
L Device:R R4
U 1 1 5E19542B
P 9010 2685
F 0 "R4" V 8803 2685 50  0000 C CNN
F 1 "1k" V 8894 2685 50  0000 C CNN
F 2 "Resistor_SMD:R_0805_2012Metric_Pad1.15x1.40mm_HandSolder" V 8940 2685 50  0001 C CNN
F 3 "~" H 9010 2685 50  0001 C CNN
	1    9010 2685
	0    1    1    0   
$EndComp
Wire Wire Line
	9160 2685 9205 2685
$Comp
L power:GND #PWR03
U 1 1 5E196A06
P 9600 2750
F 0 "#PWR03" H 9600 2500 50  0001 C CNN
F 1 "GND" H 9605 2577 50  0000 C CNN
F 2 "" H 9600 2750 50  0001 C CNN
F 3 "" H 9600 2750 50  0001 C CNN
	1    9600 2750
	1    0    0    -1  
$EndComp
Wire Wire Line
	9505 2685 9600 2685
Wire Wire Line
	9600 2685 9600 2750
Wire Wire Line
	8860 2685 8765 2685
Text Label 8765 2685 2    50   ~ 0
LED
Text Label 6485 4095 0    50   ~ 0
LED
Wire Wire Line
	6485 4095 6390 4095
Text Label 8105 3800 2    50   ~ 0
Shutdown_Button
$Comp
L Device:R R2
U 1 1 5E1ABEB1
P 8300 3800
F 0 "R2" V 8093 3800 50  0000 C CNN
F 1 "1k" V 8184 3800 50  0000 C CNN
F 2 "Resistor_SMD:R_0805_2012Metric_Pad1.15x1.40mm_HandSolder" V 8230 3800 50  0001 C CNN
F 3 "~" H 8300 3800 50  0001 C CNN
	1    8300 3800
	0    1    1    0   
$EndComp
Wire Wire Line
	8105 3800 8150 3800
$Comp
L Switch:SW_Push SW2
U 1 1 5E1B59D6
P 9110 4650
F 0 "SW2" H 9110 4935 50  0000 C CNN
F 1 "SW_Push" H 9110 4844 50  0000 C CNN
F 2 "Button_Switch_SMD:SW_SPST_SKQG_WithStem" H 9110 4850 50  0001 C CNN
F 3 "~" H 9110 4850 50  0001 C CNN
	1    9110 4650
	1    0    0    -1  
$EndComp
Text Label 8115 4650 2    50   ~ 0
User_Button
Wire Wire Line
	9310 4650 9405 4650
$Comp
L Device:R R3
U 1 1 5E1B59E5
P 8310 4650
F 0 "R3" V 8103 4650 50  0000 C CNN
F 1 "1k" V 8194 4650 50  0000 C CNN
F 2 "Resistor_SMD:R_0805_2012Metric_Pad1.15x1.40mm_HandSolder" V 8240 4650 50  0001 C CNN
F 3 "~" H 8310 4650 50  0001 C CNN
	1    8310 4650
	0    1    1    0   
$EndComp
Wire Wire Line
	8115 4650 8160 4650
Text Label 4635 2695 2    50   ~ 0
Shutdown_Button
Wire Wire Line
	4790 2695 4635 2695
$Comp
L Device:LED D2
U 1 1 5E1CD1BB
P 2495 5790
F 0 "D2" H 2488 5535 50  0000 C CNN
F 1 "LED" H 2488 5626 50  0000 C CNN
F 2 "LED_SMD:LED_0805_2012Metric_Pad1.15x1.40mm_HandSolder" H 2495 5790 50  0001 C CNN
F 3 "~" H 2495 5790 50  0001 C CNN
	1    2495 5790
	-1   0    0    1   
$EndComp
$Comp
L Device:R R5
U 1 1 5E1CD1C1
P 2150 5790
F 0 "R5" V 1943 5790 50  0000 C CNN
F 1 "1k" V 2034 5790 50  0000 C CNN
F 2 "Resistor_SMD:R_0805_2012Metric_Pad1.15x1.40mm_HandSolder" V 2080 5790 50  0001 C CNN
F 3 "~" H 2150 5790 50  0001 C CNN
	1    2150 5790
	0    1    1    0   
$EndComp
Wire Wire Line
	2300 5790 2345 5790
$Comp
L power:GND #PWR04
U 1 1 5E1CD1C8
P 2740 5855
F 0 "#PWR04" H 2740 5605 50  0001 C CNN
F 1 "GND" H 2745 5682 50  0000 C CNN
F 2 "" H 2740 5855 50  0001 C CNN
F 3 "" H 2740 5855 50  0001 C CNN
	1    2740 5855
	1    0    0    -1  
$EndComp
Wire Wire Line
	2645 5790 2740 5790
Wire Wire Line
	2740 5790 2740 5855
Wire Wire Line
	1885 5790 2000 5790
Connection ~ 1885 5000
Wire Wire Line
	1885 5000 1850 5000
Wire Wire Line
	1885 5000 1885 5790
NoConn ~ 6390 3795
NoConn ~ 6390 3695
NoConn ~ 6390 3595
NoConn ~ 6390 3495
NoConn ~ 6390 3395
NoConn ~ 6390 3195
NoConn ~ 6390 3095
NoConn ~ 6390 2995
NoConn ~ 6390 2795
NoConn ~ 6390 2695
NoConn ~ 6390 2495
NoConn ~ 6390 2395
NoConn ~ 4790 2395
NoConn ~ 4790 2495
NoConn ~ 4790 3095
NoConn ~ 4790 3195
NoConn ~ 4790 3295
NoConn ~ 4790 3495
NoConn ~ 4790 3695
NoConn ~ 4790 3995
$Comp
L Connector_Generic:Conn_01x02 J3
U 1 1 5E15F05F
P 7225 5395
F 0 "J3" H 7270 5505 50  0000 R CNN
F 1 "Conn_01x02" V 7098 5207 50  0001 R CNN
F 2 "Connector_JST:JST_PH_B2B-PH-K_1x02_P2.00mm_Vertical" H 7225 5395 50  0001 C CNN
F 3 "~" H 7225 5395 50  0001 C CNN
	1    7225 5395
	1    0    0    -1  
$EndComp
Text Label 6440 5395 2    50   ~ 0
IO23
$Comp
L power:GND #PWR0105
U 1 1 5E161701
P 6915 5530
F 0 "#PWR0105" H 6915 5280 50  0001 C CNN
F 1 "GND" H 6920 5357 50  0000 C CNN
F 2 "" H 6915 5530 50  0001 C CNN
F 3 "" H 6915 5530 50  0001 C CNN
	1    6915 5530
	1    0    0    -1  
$EndComp
Wire Wire Line
	6915 5530 6915 5495
Wire Wire Line
	6915 5495 7025 5495
Wire Wire Line
	7025 5395 6915 5395
$Comp
L Device:C C1
U 1 1 609BF20E
P 8600 4035
F 0 "C1" H 8715 4081 50  0000 L CNN
F 1 "100nF" H 8715 3990 50  0000 L CNN
F 2 "Capacitor_SMD:C_0805_2012Metric_Pad1.15x1.40mm_HandSolder" H 8638 3885 50  0001 C CNN
F 3 "~" H 8600 4035 50  0001 C CNN
	1    8600 4035
	1    0    0    -1  
$EndComp
$Comp
L Device:C C2
U 1 1 609C407E
P 8600 4930
F 0 "C2" H 8715 4976 50  0000 L CNN
F 1 "100nF" H 8715 4885 50  0000 L CNN
F 2 "Capacitor_SMD:C_0805_2012Metric_Pad1.15x1.40mm_HandSolder" H 8638 4780 50  0001 C CNN
F 3 "~" H 8600 4930 50  0001 C CNN
	1    8600 4930
	1    0    0    -1  
$EndComp
Wire Wire Line
	8460 4650 8600 4650
Wire Wire Line
	8600 4780 8600 4650
Connection ~ 8600 4650
Wire Wire Line
	8600 4650 8910 4650
Wire Wire Line
	9405 4650 9405 5175
$Comp
L power:GND #PWR02
U 1 1 5E1B59DD
P 9405 5235
F 0 "#PWR02" H 9405 4985 50  0001 C CNN
F 1 "GND" H 9410 5062 50  0000 C CNN
F 2 "" H 9405 5235 50  0001 C CNN
F 3 "" H 9405 5235 50  0001 C CNN
	1    9405 5235
	1    0    0    -1  
$EndComp
Wire Wire Line
	8600 5080 8600 5175
Wire Wire Line
	8600 5175 9405 5175
Connection ~ 9405 5175
Wire Wire Line
	9405 5175 9405 5235
Wire Wire Line
	8450 3800 8600 3800
Wire Wire Line
	8600 3885 8600 3800
Connection ~ 8600 3800
Wire Wire Line
	8600 3800 8850 3800
Wire Wire Line
	8600 4185 8600 4250
Wire Wire Line
	8600 4250 9405 4250
Wire Wire Line
	9405 4250 9405 4650
Connection ~ 9405 4650
Wire Wire Line
	9405 3800 9405 4250
Connection ~ 9405 4250
$Comp
L Switch:SW_Push SW1
U 1 1 5E1A83D6
P 9050 3800
F 0 "SW1" H 9050 4085 50  0000 C CNN
F 1 "SW_Push" H 9050 3994 50  0000 C CNN
F 2 "Button_Switch_SMD:SW_SPST_SKQG_WithStem" H 9050 3993 50  0001 C CNN
F 3 "~" H 9050 4000 50  0001 C CNN
	1    9050 3800
	1    0    0    -1  
$EndComp
Wire Wire Line
	9250 3800 9405 3800
NoConn ~ 4790 2795
Text Label 4695 3795 2    50   ~ 0
User_Button
Wire Wire Line
	4790 3795 4695 3795
NoConn ~ 6395 3995
Text Label 4600 3595 2    50   ~ 0
IO23
Wire Wire Line
	4790 3595 4600 3595
NoConn ~ 4790 3895
$Comp
L Device:R R7
U 1 1 60A48E00
P 6765 5395
F 0 "R7" V 6558 5395 50  0000 C CNN
F 1 "1k" V 6649 5395 50  0000 C CNN
F 2 "Resistor_SMD:R_0805_2012Metric_Pad1.15x1.40mm_HandSolder" V 6695 5395 50  0001 C CNN
F 3 "~" H 6765 5395 50  0001 C CNN
	1    6765 5395
	0    1    1    0   
$EndComp
$Comp
L Device:LED D3
U 1 1 60A511D6
P 7105 5970
F 0 "D3" H 7098 5715 50  0000 C CNN
F 1 "LED" H 7098 5806 50  0000 C CNN
F 2 "LED_SMD:LED_0805_2012Metric_Pad1.15x1.40mm_HandSolder" H 7105 5970 50  0001 C CNN
F 3 "~" H 7105 5970 50  0001 C CNN
	1    7105 5970
	-1   0    0    1   
$EndComp
$Comp
L Device:R R6
U 1 1 60A511DC
P 6760 5970
F 0 "R6" V 6553 5970 50  0000 C CNN
F 1 "1k" V 6644 5970 50  0000 C CNN
F 2 "Resistor_SMD:R_0805_2012Metric_Pad1.15x1.40mm_HandSolder" V 6690 5970 50  0001 C CNN
F 3 "~" H 6760 5970 50  0001 C CNN
	1    6760 5970
	0    1    1    0   
$EndComp
Wire Wire Line
	6910 5970 6955 5970
$Comp
L power:GND #PWR0106
U 1 1 60A511E3
P 7350 6035
F 0 "#PWR0106" H 7350 5785 50  0001 C CNN
F 1 "GND" H 7355 5862 50  0000 C CNN
F 2 "" H 7350 6035 50  0001 C CNN
F 3 "" H 7350 6035 50  0001 C CNN
	1    7350 6035
	1    0    0    -1  
$EndComp
Wire Wire Line
	7255 5970 7350 5970
Wire Wire Line
	7350 5970 7350 6035
Wire Wire Line
	6610 5970 6515 5970
Wire Wire Line
	6515 5970 6515 5395
Wire Wire Line
	6440 5395 6515 5395
Connection ~ 6515 5395
Wire Wire Line
	6515 5395 6615 5395
Wire Wire Line
	2545 4455 2575 4455
Wire Wire Line
	2545 4455 2545 4650
Wire Wire Line
	2900 4455 2875 4455
Wire Wire Line
	2900 4455 2900 4800
Wire Wire Line
	2545 4455 2545 4265
Wire Wire Line
	2545 4265 2690 4265
Connection ~ 2545 4455
Wire Wire Line
	2790 4265 2900 4265
Wire Wire Line
	2900 4265 2900 4455
Connection ~ 2900 4455
$Comp
L Device:D_Schottky D4
U 1 1 60A8684D
P 2725 4455
F 0 "D4" H 3090 4455 50  0000 C CNN
F 1 "D_Schottky" H 2725 4580 50  0001 C CNN
F 2 "Diode_SMD:D_SOD-323_HandSoldering" H 2725 4455 50  0001 C CNN
F 3 "~" H 2725 4455 50  0001 C CNN
	1    2725 4455
	1    0    0    -1  
$EndComp
$EndSCHEMATC
