EESchema Schematic File Version 5
EELAYER 36 0
EELAYER END
$Descr A4 11693 8268
encoding utf-8
Sheet 1 1
Title ""
Date ""
Rev ""
Comp ""
Comment1 ""
Comment2 ""
Comment3 ""
Comment4 ""
Comment5 ""
Comment6 ""
Comment7 ""
Comment8 ""
Comment9 ""
$EndDescr
Connection ~ 1885 5000
Connection ~ 2300 2000
Connection ~ 2300 2400
Connection ~ 2545 4455
Connection ~ 2900 4455
Connection ~ 5190 4720
Connection ~ 5290 4720
Connection ~ 5390 1935
Connection ~ 5390 4720
Connection ~ 5490 4720
Connection ~ 5590 4720
Connection ~ 5690 1935
Connection ~ 5690 4720
Connection ~ 5790 4720
Connection ~ 6805 5390
Connection ~ 8775 850 
Connection ~ 8775 2100
Connection ~ 9125 4310
Connection ~ 9125 5160
Connection ~ 9930 4760
Connection ~ 9930 5160
Connection ~ 9930 5685
NoConn ~ 4790 2395
NoConn ~ 4790 2495
NoConn ~ 4790 2795
NoConn ~ 4790 3095
NoConn ~ 4790 3195
NoConn ~ 4790 3295
NoConn ~ 4790 3495
NoConn ~ 4790 3995
NoConn ~ 6390 2395
NoConn ~ 6390 2495
NoConn ~ 6390 2995
NoConn ~ 6390 3095
NoConn ~ 6390 3195
NoConn ~ 6390 3395
NoConn ~ 6395 3995
Wire Wire Line
	1885 5000 1850 5000
Wire Wire Line
	1885 5000 1885 5790
Wire Wire Line
	1885 5790 2000 5790
Wire Wire Line
	2005 5000 1885 5000
Wire Wire Line
	2300 2000 2300 1900
Wire Wire Line
	2300 2000 2800 2000
Wire Wire Line
	2300 2050 2300 2000
Wire Wire Line
	2300 2350 2300 2400
Wire Wire Line
	2300 2400 2800 2400
Wire Wire Line
	2300 2500 2300 2400
Wire Wire Line
	2300 5790 2345 5790
Wire Wire Line
	2305 5000 2600 5000
Wire Wire Line
	2545 4265 2690 4265
Wire Wire Line
	2545 4455 2545 4265
Wire Wire Line
	2545 4455 2545 4650
Wire Wire Line
	2545 4455 2575 4455
Wire Wire Line
	2645 5790 2740 5790
Wire Wire Line
	2740 5790 2740 5855
Wire Wire Line
	2790 4265 2900 4265
Wire Wire Line
	2800 2000 2800 2050
Wire Wire Line
	2800 2400 2800 2350
Wire Wire Line
	2900 4265 2900 4455
Wire Wire Line
	2900 4455 2875 4455
Wire Wire Line
	2900 4455 2900 4800
Wire Wire Line
	2900 5200 2900 5285
Wire Wire Line
	4790 2695 4635 2695
Wire Wire Line
	4790 2895 4635 2895
Wire Wire Line
	4790 3595 4600 3595
Wire Wire Line
	4790 3695 4695 3695
Wire Wire Line
	4790 3795 4695 3795
Wire Wire Line
	4790 3895 4695 3895
Wire Wire Line
	5190 4720 5190 4595
Wire Wire Line
	5190 4720 5290 4720
Wire Wire Line
	5190 4760 5190 4720
Wire Wire Line
	5290 4720 5290 4595
Wire Wire Line
	5290 4720 5390 4720
Wire Wire Line
	5390 1935 5390 1870
Wire Wire Line
	5390 1935 5490 1935
Wire Wire Line
	5390 1995 5390 1935
Wire Wire Line
	5390 4720 5390 4595
Wire Wire Line
	5390 4720 5490 4720
Wire Wire Line
	5490 1935 5490 1995
Wire Wire Line
	5490 4720 5490 4595
Wire Wire Line
	5490 4720 5590 4720
Wire Wire Line
	5590 4720 5590 4595
Wire Wire Line
	5590 4720 5690 4720
Wire Wire Line
	5690 1870 5690 1935
Wire Wire Line
	5690 1935 5690 1995
Wire Wire Line
	5690 1935 5790 1935
Wire Wire Line
	5690 4720 5690 4595
Wire Wire Line
	5690 4720 5790 4720
Wire Wire Line
	5790 1935 5790 1995
Wire Wire Line
	5790 4720 5790 4595
Wire Wire Line
	5790 4720 5890 4720
Wire Wire Line
	5890 4720 5890 4595
Wire Wire Line
	6390 2695 6485 2695
Wire Wire Line
	6390 2795 6485 2795
Wire Wire Line
	6390 3495 6485 3495
Wire Wire Line
	6390 3595 6485 3595
Wire Wire Line
	6390 3695 6485 3695
Wire Wire Line
	6390 3795 6485 3795
Wire Wire Line
	6485 4095 6390 4095
Wire Wire Line
	6730 5390 6805 5390
Wire Wire Line
	6805 5390 6905 5390
Wire Wire Line
	6805 5965 6805 5390
Wire Wire Line
	6900 5965 6805 5965
Wire Wire Line
	7200 5965 7245 5965
Wire Wire Line
	7205 5490 7315 5490
Wire Wire Line
	7205 5525 7205 5490
Wire Wire Line
	7315 5390 7205 5390
Wire Wire Line
	7545 5965 7640 5965
Wire Wire Line
	7640 5965 7640 6030
Wire Wire Line
	8275 1175 8180 1175
Wire Wire Line
	8275 1275 8180 1275
Wire Wire Line
	8275 1375 8180 1375
Wire Wire Line
	8275 1475 8180 1475
Wire Wire Line
	8275 1675 8180 1675
Wire Wire Line
	8275 1775 8180 1775
Wire Wire Line
	8630 4310 8675 4310
Wire Wire Line
	8640 5160 8685 5160
Wire Wire Line
	8775 830  8775 850 
Wire Wire Line
	8775 850  8775 875 
Wire Wire Line
	8775 850  9320 850 
Wire Wire Line
	8775 2075 8775 2100
Wire Wire Line
	8775 2100 8775 2125
Wire Wire Line
	8775 2100 9320 2100
Wire Wire Line
	8920 3555 8825 3555
Wire Wire Line
	8975 4310 9125 4310
Wire Wire Line
	8985 5160 9125 5160
Wire Wire Line
	9125 4310 9375 4310
Wire Wire Line
	9125 4395 9125 4310
Wire Wire Line
	9125 4695 9125 4760
Wire Wire Line
	9125 4760 9930 4760
Wire Wire Line
	9125 5160 9435 5160
Wire Wire Line
	9125 5290 9125 5160
Wire Wire Line
	9125 5590 9125 5685
Wire Wire Line
	9125 5685 9930 5685
Wire Wire Line
	9220 3555 9265 3555
Wire Wire Line
	9320 850  9320 1340
Wire Wire Line
	9320 2100 9320 1640
Wire Wire Line
	9565 3555 9660 3555
Wire Wire Line
	9660 3555 9660 3620
Wire Wire Line
	9775 4310 9930 4310
Wire Wire Line
	9835 5160 9930 5160
Wire Wire Line
	9930 4310 9930 4760
Wire Wire Line
	9930 4760 9930 5160
Wire Wire Line
	9930 5160 9930 5685
Wire Wire Line
	9930 5685 9930 5745
Text Label 1850 5000 2    50   ~ 0
Fan_Control
Text Label 2500 5000 2    50   ~ 0
Gate
Text Label 2900 4700 0    50   ~ 0
Drain
Text Label 2900 5285 0    50   ~ 0
Source
Text Label 4600 3595 2    50   ~ 0
IO23
Text Label 4635 2695 2    50   ~ 0
Shutdown_Button
Text Label 4635 2895 2    50   ~ 0
Fan_Control
Text Label 4695 3695 2    50   ~ 0
NRF_IRQ
Text Label 4695 3795 2    50   ~ 0
NRF_CE
Text Label 4695 3895 2    50   ~ 0
User_Button
Text Label 6485 2695 0    50   ~ 0
SDA
Text Label 6485 2795 0    50   ~ 0
SCL
Text Label 6485 3495 0    50   ~ 0
NRF_CS
Text Label 6485 3595 0    50   ~ 0
NRF_MISO
Text Label 6485 3695 0    50   ~ 0
NRF_MOSI
Text Label 6485 3795 0    50   ~ 0
NRF_CLK
Text Label 6485 4095 0    50   ~ 0
LED
Text Label 6730 5390 2    50   ~ 0
IO23
Text Label 8180 1175 2    50   ~ 0
NRF_MOSI
Text Label 8180 1275 2    50   ~ 0
NRF_MISO
Text Label 8180 1375 2    50   ~ 0
NRF_CLK
Text Label 8180 1475 2    50   ~ 0
NRF_CS
Text Label 8180 1675 2    50   ~ 0
NRF_CE
Text Label 8180 1775 2    50   ~ 0
NRF_IRQ
Text Label 8630 4310 2    50   ~ 0
Shutdown_Button
Text Label 8640 5160 2    50   ~ 0
User_Button
Text Label 8825 3555 2    50   ~ 0
LED
$Comp
L power:+5V #PWR0103
U 1 1 5E172896
P 2300 1900
F 0 "#PWR0103" H 2300 1750 50  0001 C CNN
F 1 "+5V" H 2315 2073 50  0000 C CNN
F 2 "" H 2300 1900 50  0001 C CNN
F 3 "" H 2300 1900 50  0001 C CNN
	1    2300 1900
	1    0    0    -1  
$EndComp
$Comp
L power:+5V #PWR0101
U 1 1 5E1659A6
P 2545 4650
F 0 "#PWR0101" H 2545 4500 50  0001 C CNN
F 1 "+5V" H 2560 4823 50  0000 C CNN
F 2 "" H 2545 4650 50  0001 C CNN
F 3 "" H 2545 4650 50  0001 C CNN
	1    2545 4650
	-1   0    0    1   
$EndComp
$Comp
L power:+5V #PWR0107
U 1 1 5E17A1C0
P 5390 1870
F 0 "#PWR0107" H 5390 1720 50  0001 C CNN
F 1 "+5V" H 5405 2043 50  0000 C CNN
F 2 "" H 5390 1870 50  0001 C CNN
F 3 "" H 5390 1870 50  0001 C CNN
	1    5390 1870
	1    0    0    -1  
$EndComp
$Comp
L power:+3.3V #PWR0108
U 1 1 5E17FF6E
P 5690 1870
F 0 "#PWR0108" H 5690 1720 50  0001 C CNN
F 1 "+3.3V" H 5705 2043 50  0000 C CNN
F 2 "" H 5690 1870 50  0001 C CNN
F 3 "" H 5690 1870 50  0001 C CNN
	1    5690 1870
	1    0    0    -1  
$EndComp
$Comp
L power:+3.3V #PWR?
U 1 1 00000000
P 8775 830
F 0 "#PWR?" H 8775 680 50  0001 C CNN
F 1 "+3.3V" H 8790 1003 50  0000 C CNN
F 2 "" H 8775 830 50  0001 C CNN
F 3 "" H 8775 830 50  0001 C CNN
	1    8775 830 
	1    0    0    -1  
$EndComp
$Comp
L power:GND #PWR0104
U 1 1 5E1731A1
P 2300 2500
F 0 "#PWR0104" H 2300 2250 50  0001 C CNN
F 1 "GND" H 2305 2327 50  0000 C CNN
F 2 "" H 2300 2500 50  0001 C CNN
F 3 "" H 2300 2500 50  0001 C CNN
	1    2300 2500
	1    0    0    -1  
$EndComp
$Comp
L power:GND #PWR04
U 1 1 5E1CD1C8
P 2740 5855
F 0 "#PWR04" H 2740 5605 50  0001 C CNN
F 1 "GND" H 2745 5682 50  0000 C CNN
F 2 "" H 2740 5855 50  0001 C CNN
F 3 "" H 2740 5855 50  0001 C CNN
	1    2740 5855
	1    0    0    -1  
$EndComp
$Comp
L power:GND #PWR0102
U 1 1 5E166553
P 2900 5285
F 0 "#PWR0102" H 2900 5035 50  0001 C CNN
F 1 "GND" H 2905 5112 50  0000 C CNN
F 2 "" H 2900 5285 50  0001 C CNN
F 3 "" H 2900 5285 50  0001 C CNN
	1    2900 5285
	1    0    0    -1  
$EndComp
$Comp
L power:GND #PWR0109
U 1 1 5E180CD7
P 5190 4760
F 0 "#PWR0109" H 5190 4510 50  0001 C CNN
F 1 "GND" H 5195 4587 50  0000 C CNN
F 2 "" H 5190 4760 50  0001 C CNN
F 3 "" H 5190 4760 50  0001 C CNN
	1    5190 4760
	1    0    0    -1  
$EndComp
$Comp
L power:GND #PWR0105
U 1 1 5E161701
P 7205 5525
F 0 "#PWR0105" H 7205 5275 50  0001 C CNN
F 1 "GND" H 7210 5352 50  0000 C CNN
F 2 "" H 7205 5525 50  0001 C CNN
F 3 "" H 7205 5525 50  0001 C CNN
	1    7205 5525
	1    0    0    -1  
$EndComp
$Comp
L power:GND #PWR0106
U 1 1 60A511E3
P 7640 6030
F 0 "#PWR0106" H 7640 5780 50  0001 C CNN
F 1 "GND" H 7645 5857 50  0000 C CNN
F 2 "" H 7640 6030 50  0001 C CNN
F 3 "" H 7640 6030 50  0001 C CNN
	1    7640 6030
	1    0    0    -1  
$EndComp
$Comp
L power:GND #PWR?
U 1 1 00000000
P 8775 2125
F 0 "#PWR?" H 8775 1875 50  0001 C CNN
F 1 "GND" H 8780 1952 50  0000 C CNN
F 2 "" H 8775 2125 50  0001 C CNN
F 3 "" H 8775 2125 50  0001 C CNN
	1    8775 2125
	1    0    0    -1  
$EndComp
$Comp
L power:GND #PWR03
U 1 1 5E196A06
P 9660 3620
F 0 "#PWR03" H 9660 3370 50  0001 C CNN
F 1 "GND" H 9665 3447 50  0000 C CNN
F 2 "" H 9660 3620 50  0001 C CNN
F 3 "" H 9660 3620 50  0001 C CNN
	1    9660 3620
	1    0    0    -1  
$EndComp
$Comp
L power:GND #PWR02
U 1 1 5E1B59DD
P 9930 5745
F 0 "#PWR02" H 9930 5495 50  0001 C CNN
F 1 "GND" H 9935 5572 50  0000 C CNN
F 2 "" H 9930 5745 50  0001 C CNN
F 3 "" H 9930 5745 50  0001 C CNN
	1    9930 5745
	1    0    0    -1  
$EndComp
$Comp
L Device:R R5
U 1 1 5E1CD1C1
P 2150 5790
F 0 "R5" V 1943 5790 50  0000 C CNN
F 1 "1k" V 2034 5790 50  0000 C CNN
F 2 "Resistor_SMD:R_0805_2012Metric_Pad1.15x1.40mm_HandSolder" V 2080 5790 50  0001 C CNN
F 3 "~" H 2150 5790 50  0001 C CNN
	1    2150 5790
	0    1    1    0   
$EndComp
$Comp
L Device:R R1
U 1 1 5E166C43
P 2155 5000
F 0 "R1" V 1948 5000 50  0000 C CNN
F 1 "1k" V 2039 5000 50  0000 C CNN
F 2 "Resistor_SMD:R_0805_2012Metric_Pad1.15x1.40mm_HandSolder" V 2085 5000 50  0001 C CNN
F 3 "~" H 2155 5000 50  0001 C CNN
	1    2155 5000
	0    1    1    0   
$EndComp
$Comp
L Device:R R6
U 1 1 60A511DC
P 7050 5965
F 0 "R6" V 6843 5965 50  0000 C CNN
F 1 "1k" V 6934 5965 50  0000 C CNN
F 2 "Resistor_SMD:R_0805_2012Metric_Pad1.15x1.40mm_HandSolder" V 6980 5965 50  0001 C CNN
F 3 "~" H 7050 5965 50  0001 C CNN
	1    7050 5965
	0    1    1    0   
$EndComp
$Comp
L Device:R R7
U 1 1 60A48E00
P 7055 5390
F 0 "R7" V 6848 5390 50  0000 C CNN
F 1 "1k" V 6939 5390 50  0000 C CNN
F 2 "Resistor_SMD:R_0805_2012Metric_Pad1.15x1.40mm_HandSolder" V 6985 5390 50  0001 C CNN
F 3 "~" H 7055 5390 50  0001 C CNN
	1    7055 5390
	0    1    1    0   
$EndComp
$Comp
L Device:R R2
U 1 1 5E1ABEB1
P 8825 4310
F 0 "R2" V 8618 4310 50  0000 C CNN
F 1 "1k" V 8709 4310 50  0000 C CNN
F 2 "Resistor_SMD:R_0805_2012Metric_Pad1.15x1.40mm_HandSolder" V 8755 4310 50  0001 C CNN
F 3 "~" H 8825 4310 50  0001 C CNN
	1    8825 4310
	0    1    1    0   
$EndComp
$Comp
L Device:R R3
U 1 1 5E1B59E5
P 8835 5160
F 0 "R3" V 8628 5160 50  0000 C CNN
F 1 "1k" V 8719 5160 50  0000 C CNN
F 2 "Resistor_SMD:R_0805_2012Metric_Pad1.15x1.40mm_HandSolder" V 8765 5160 50  0001 C CNN
F 3 "~" H 8835 5160 50  0001 C CNN
	1    8835 5160
	0    1    1    0   
$EndComp
$Comp
L Device:R R4
U 1 1 5E19542B
P 9070 3555
F 0 "R4" V 8863 3555 50  0000 C CNN
F 1 "1k" V 8954 3555 50  0000 C CNN
F 2 "Resistor_SMD:R_0805_2012Metric_Pad1.15x1.40mm_HandSolder" V 9000 3555 50  0001 C CNN
F 3 "~" H 9070 3555 50  0001 C CNN
	1    9070 3555
	0    1    1    0   
$EndComp
$Comp
L Device:D_Schottky D4
U 1 1 60A8684D
P 2725 4455
F 0 "D4" H 3090 4455 50  0000 C CNN
F 1 "D_Schottky" H 2725 4580 50  0001 C CNN
F 2 "Diode_SMD:D_SOD-323_HandSoldering" H 2725 4455 50  0001 C CNN
F 3 "~" H 2725 4455 50  0001 C CNN
	1    2725 4455
	1    0    0    -1  
$EndComp
$Comp
L Device:LED D2
U 1 1 5E1CD1BB
P 2495 5790
F 0 "D2" H 2488 5535 50  0000 C CNN
F 1 "LED" H 2488 5626 50  0000 C CNN
F 2 "LED_SMD:LED_0805_2012Metric_Pad1.15x1.40mm_HandSolder" H 2495 5790 50  0001 C CNN
F 3 "~" H 2495 5790 50  0001 C CNN
	1    2495 5790
	-1   0    0    1   
$EndComp
$Comp
L Device:LED D3
U 1 1 60A511D6
P 7395 5965
F 0 "D3" H 7388 5710 50  0000 C CNN
F 1 "LED" H 7388 5801 50  0000 C CNN
F 2 "LED_SMD:LED_0805_2012Metric_Pad1.15x1.40mm_HandSolder" H 7395 5965 50  0001 C CNN
F 3 "~" H 7395 5965 50  0001 C CNN
	1    7395 5965
	-1   0    0    1   
$EndComp
$Comp
L Device:LED D1
U 1 1 5E194057
P 9415 3555
F 0 "D1" H 9408 3300 50  0000 C CNN
F 1 "LED" H 9408 3391 50  0000 C CNN
F 2 "LED_SMD:LED_0805_2012Metric_Pad1.15x1.40mm_HandSolder" H 9415 3555 50  0001 C CNN
F 3 "~" H 9415 3555 50  0001 C CNN
	1    9415 3555
	-1   0    0    1   
$EndComp
$Comp
L Connector_Generic:Conn_01x02 J2
U 1 1 5E164601
P 2690 4065
F 0 "J2" V 2654 3877 50  0000 R CNN
F 1 "Conn_01x02" V 2563 3877 50  0001 R CNN
F 2 "Connector_JST:JST_PH_B2B-PH-K_1x02_P2.00mm_Vertical" H 2690 4065 50  0001 C CNN
F 3 "~" H 2690 4065 50  0001 C CNN
	1    2690 4065
	0    -1   -1   0   
$EndComp
$Comp
L Connector_Generic:Conn_01x02 J3
U 1 1 5E15F05F
P 7515 5390
F 0 "J3" H 7560 5500 50  0000 R CNN
F 1 "Conn_01x02" V 7388 5202 50  0001 R CNN
F 2 "Connector_JST:JST_PH_B2B-PH-K_1x02_P2.00mm_Vertical" H 7515 5390 50  0001 C CNN
F 3 "~" H 7515 5390 50  0001 C CNN
	1    7515 5390
	1    0    0    -1  
$EndComp
$Comp
L Device:C C3
U 1 1 5E16E589
P 2300 2200
F 0 "C3" H 2415 2246 50  0000 L CNN
F 1 "10uF" H 2415 2155 50  0000 L CNN
F 2 "Capacitor_SMD:C_0805_2012Metric_Pad1.15x1.40mm_HandSolder" H 2338 2050 50  0001 C CNN
F 3 "~" H 2300 2200 50  0001 C CNN
	1    2300 2200
	1    0    0    -1  
$EndComp
$Comp
L Device:C C4
U 1 1 5E170396
P 2800 2200
F 0 "C4" H 2915 2246 50  0000 L CNN
F 1 "100nF" H 2915 2155 50  0000 L CNN
F 2 "Capacitor_SMD:C_0805_2012Metric_Pad1.15x1.40mm_HandSolder" H 2838 2050 50  0001 C CNN
F 3 "~" H 2800 2200 50  0001 C CNN
	1    2800 2200
	1    0    0    -1  
$EndComp
$Comp
L Device:C C1
U 1 1 609BF20E
P 9125 4545
F 0 "C1" H 9240 4591 50  0000 L CNN
F 1 "100nF" H 9240 4500 50  0000 L CNN
F 2 "Capacitor_SMD:C_0805_2012Metric_Pad1.15x1.40mm_HandSolder" H 9163 4395 50  0001 C CNN
F 3 "~" H 9125 4545 50  0001 C CNN
	1    9125 4545
	1    0    0    -1  
$EndComp
$Comp
L Device:C C2
U 1 1 609C407E
P 9125 5440
F 0 "C2" H 9240 5486 50  0000 L CNN
F 1 "100nF" H 9240 5395 50  0000 L CNN
F 2 "Capacitor_SMD:C_0805_2012Metric_Pad1.15x1.40mm_HandSolder" H 9163 5290 50  0001 C CNN
F 3 "~" H 9125 5440 50  0001 C CNN
	1    9125 5440
	1    0    0    -1  
$EndComp
$Comp
L Device:C C?
U 1 1 00000000
P 9320 1490
F 0 "C?" H 9435 1536 50  0000 L CNN
F 1 "10uF" H 9435 1445 50  0000 L CNN
F 2 "Capacitor_SMD:C_0805_2012Metric_Pad1.15x1.40mm_HandSolder" H 9358 1340 50  0001 C CNN
F 3 "~" H 9320 1490 50  0001 C CNN
	1    9320 1490
	1    0    0    -1  
$EndComp
$Comp
L Switch:SW_Push SW1
U 1 1 5E1A83D6
P 9575 4310
F 0 "SW1" H 9575 4595 50  0000 C CNN
F 1 "SW_Push" H 9575 4504 50  0000 C CNN
F 2 "Button_Switch_SMD:SW_SPST_SKQG_WithStem" H 9575 4503 50  0001 C CNN
F 3 "~" H 9575 4510 50  0001 C CNN
	1    9575 4310
	1    0    0    -1  
$EndComp
$Comp
L Switch:SW_Push SW2
U 1 1 5E1B59D6
P 9635 5160
F 0 "SW2" H 9635 5445 50  0000 C CNN
F 1 "SW_Push" H 9635 5354 50  0000 C CNN
F 2 "Button_Switch_SMD:SW_SPST_SKQG_WithStem" H 9635 5360 50  0001 C CNN
F 3 "~" H 9635 5360 50  0001 C CNN
	1    9635 5160
	1    0    0    -1  
$EndComp
$Comp
L Connector_Generic:Conn_01x04 J?
U 1 1 00000000
P 8465 2610
F 0 "J?" H 8435 2845 50  0000 L CNN
F 1 "Conn_01x04" H 8545 2487 50  0001 L CNN
F 2 "" H 8465 2610 50  0001 C CNN
F 3 "~" H 8465 2610 50  0001 C CNN
	1    8465 2610
	1    0    0    -1  
$EndComp
$Comp
L Device:Q_NMOS_GSD Q1
U 1 1 5E15BF0D
P 2800 5000
F 0 "Q1" H 3006 5046 50  0000 L CNN
F 1 "Q_NMOS_GDS" H 3006 4955 50  0000 L CNN
F 2 "Package_TO_SOT_SMD:SOT-23" H 3000 5100 50  0001 C CNN
F 3 "~" H 2800 5000 50  0001 C CNN
	1    2800 5000
	1    0    0    -1  
$EndComp
$Comp
L RF:NRF24L01_Breakout U?
U 1 1 00000000
P 8775 1475
F 0 "U?" H 8890 2000 50  0000 L CNN
F 1 "NRF24L01_Breakout" H 7895 2005 50  0000 L CNN
F 2 "RF_Module:nRF24L01_Breakout" H 8925 2075 50  0001 L CIN
F 3 "http://www.nordicsemi.com/eng/content/download/2730/34105/file/nRF24L01_Product_Specification_v2_0.pdf" H 8775 1375 50  0001 C CNN
	1    8775 1475
	1    0    0    -1  
$EndComp
$Comp
L Connector:Raspberry_Pi_2_3 J1
U 1 1 5E15951C
P 5590 3295
F 0 "J1" H 6100 4590 50  0000 C CNN
F 1 "Raspberry_Pi_2_3" H 4950 4590 50  0000 C CNN
F 2 "Connector_PinSocket_2.54mm:PinSocket_2x20_P2.54mm_Vertical" H 5590 3295 50  0001 C CNN
F 3 "https://www.raspberrypi.org/documentation/hardware/raspberrypi/schematics/rpi_SCH_3bplus_1p0_reduced.pdf" H 5590 3295 50  0001 C CNN
	1    5590 3295
	1    0    0    -1  
$EndComp
$EndSCHEMATC
