G04 #@! TF.GenerationSoftware,KiCad,Pcbnew,(6.0.10)*
G04 #@! TF.CreationDate,2023-05-19T10:07:12+02:00*
G04 #@! TF.ProjectId,raspi_breakout,72617370-695f-4627-9265-616b6f75742e,rev?*
G04 #@! TF.SameCoordinates,Original*
G04 #@! TF.FileFunction,Paste,Bot*
G04 #@! TF.FilePolarity,Positive*
%FSLAX46Y46*%
G04 Gerber Fmt 4.6, Leading zero omitted, Abs format (unit mm)*
G04 Created by KiCad (PCBNEW (6.0.10)) date 2023-05-19 10:07:12*
%MOMM*%
%LPD*%
G01*
G04 APERTURE LIST*
G04 Aperture macros list*
%AMRoundRect*
0 Rectangle with rounded corners*
0 $1 Rounding radius*
0 $2 $3 $4 $5 $6 $7 $8 $9 X,Y pos of 4 corners*
0 Add a 4 corners polygon primitive as box body*
4,1,4,$2,$3,$4,$5,$6,$7,$8,$9,$2,$3,0*
0 Add four circle primitives for the rounded corners*
1,1,$1+$1,$2,$3*
1,1,$1+$1,$4,$5*
1,1,$1+$1,$6,$7*
1,1,$1+$1,$8,$9*
0 Add four rect primitives between the rounded corners*
20,1,$1+$1,$2,$3,$4,$5,0*
20,1,$1+$1,$4,$5,$6,$7,0*
20,1,$1+$1,$6,$7,$8,$9,0*
20,1,$1+$1,$8,$9,$2,$3,0*%
G04 Aperture macros list end*
%ADD10R,0.800000X0.900000*%
%ADD11RoundRect,0.250000X-0.450000X0.325000X-0.450000X-0.325000X0.450000X-0.325000X0.450000X0.325000X0*%
%ADD12RoundRect,0.250000X0.450000X-0.325000X0.450000X0.325000X-0.450000X0.325000X-0.450000X-0.325000X0*%
%ADD13RoundRect,0.250000X0.325000X0.450000X-0.325000X0.450000X-0.325000X-0.450000X0.325000X-0.450000X0*%
%ADD14R,1.000000X1.000000*%
G04 APERTURE END LIST*
D10*
X102865000Y-35671000D03*
X100965000Y-35671000D03*
X101915000Y-33671000D03*
D11*
X98234500Y-33963500D03*
X98234500Y-36013500D03*
X103378000Y-27804000D03*
X103378000Y-29854000D03*
X102870000Y-38296500D03*
X102870000Y-40346500D03*
D12*
X101144000Y-73548500D03*
X101144000Y-71498500D03*
D11*
X98044000Y-38345000D03*
X98044000Y-40395000D03*
D12*
X103176000Y-73548500D03*
X103176000Y-71498500D03*
X98488500Y-48777000D03*
X98488500Y-46727000D03*
D13*
X100021500Y-44386500D03*
X97971500Y-44386500D03*
D14*
X99417500Y-31686500D03*
X101917500Y-31686500D03*
M02*
