G04 #@! TF.GenerationSoftware,KiCad,Pcbnew,(6.0.10)*
G04 #@! TF.CreationDate,2023-05-19T10:05:37+02:00*
G04 #@! TF.ProjectId,raspi_breakout,72617370-695f-4627-9265-616b6f75742e,rev?*
G04 #@! TF.SameCoordinates,Original*
G04 #@! TF.FileFunction,Legend,Top*
G04 #@! TF.FilePolarity,Positive*
%FSLAX46Y46*%
G04 Gerber Fmt 4.6, Leading zero omitted, Abs format (unit mm)*
G04 Created by KiCad (PCBNEW (6.0.10)) date 2023-05-19 10:05:37*
%MOMM*%
%LPD*%
G01*
G04 APERTURE LIST*
%ADD10C,0.200000*%
%ADD11C,0.150000*%
%ADD12C,0.120000*%
G04 APERTURE END LIST*
D10*
X98596404Y-48678952D02*
X97796404Y-48678952D01*
X97796404Y-48145619D02*
X97796404Y-47993238D01*
X97834500Y-47917047D01*
X97910690Y-47840857D01*
X98063071Y-47802761D01*
X98329738Y-47802761D01*
X98482119Y-47840857D01*
X98558309Y-47917047D01*
X98596404Y-47993238D01*
X98596404Y-48145619D01*
X98558309Y-48221809D01*
X98482119Y-48298000D01*
X98329738Y-48336095D01*
X98063071Y-48336095D01*
X97910690Y-48298000D01*
X97834500Y-48221809D01*
X97796404Y-48145619D01*
X97872595Y-47498000D02*
X97834500Y-47459904D01*
X97796404Y-47383714D01*
X97796404Y-47193238D01*
X97834500Y-47117047D01*
X97872595Y-47078952D01*
X97948785Y-47040857D01*
X98024976Y-47040857D01*
X98139261Y-47078952D01*
X98596404Y-47536095D01*
X98596404Y-47040857D01*
X97796404Y-46774190D02*
X97796404Y-46278952D01*
X98101166Y-46545619D01*
X98101166Y-46431333D01*
X98139261Y-46355142D01*
X98177357Y-46317047D01*
X98253547Y-46278952D01*
X98444023Y-46278952D01*
X98520214Y-46317047D01*
X98558309Y-46355142D01*
X98596404Y-46431333D01*
X98596404Y-46659904D01*
X98558309Y-46736095D01*
X98520214Y-46774190D01*
X103511357Y-58540357D02*
X103549452Y-58426071D01*
X103587547Y-58387976D01*
X103663738Y-58349880D01*
X103778023Y-58349880D01*
X103854214Y-58387976D01*
X103892309Y-58426071D01*
X103930404Y-58502261D01*
X103930404Y-58807023D01*
X103130404Y-58807023D01*
X103130404Y-58540357D01*
X103168500Y-58464166D01*
X103206595Y-58426071D01*
X103282785Y-58387976D01*
X103358976Y-58387976D01*
X103435166Y-58426071D01*
X103473261Y-58464166D01*
X103511357Y-58540357D01*
X103511357Y-58807023D01*
X103130404Y-58121309D02*
X103130404Y-57664166D01*
X103930404Y-57892738D02*
X103130404Y-57892738D01*
X103930404Y-57397500D02*
X103130404Y-57397500D01*
X103930404Y-56940357D01*
X103130404Y-56940357D01*
X103930404Y-55949880D02*
X103130404Y-55949880D01*
X103130404Y-55416547D02*
X103130404Y-55264166D01*
X103168500Y-55187976D01*
X103244690Y-55111785D01*
X103397071Y-55073690D01*
X103663738Y-55073690D01*
X103816119Y-55111785D01*
X103892309Y-55187976D01*
X103930404Y-55264166D01*
X103930404Y-55416547D01*
X103892309Y-55492738D01*
X103816119Y-55568928D01*
X103663738Y-55607023D01*
X103397071Y-55607023D01*
X103244690Y-55568928D01*
X103168500Y-55492738D01*
X103130404Y-55416547D01*
X103206595Y-54768928D02*
X103168500Y-54730833D01*
X103130404Y-54654642D01*
X103130404Y-54464166D01*
X103168500Y-54387976D01*
X103206595Y-54349880D01*
X103282785Y-54311785D01*
X103358976Y-54311785D01*
X103473261Y-54349880D01*
X103930404Y-54807023D01*
X103930404Y-54311785D01*
X103130404Y-53587976D02*
X103130404Y-53968928D01*
X103511357Y-54007023D01*
X103473261Y-53968928D01*
X103435166Y-53892738D01*
X103435166Y-53702261D01*
X103473261Y-53626071D01*
X103511357Y-53587976D01*
X103587547Y-53549880D01*
X103778023Y-53549880D01*
X103854214Y-53587976D01*
X103892309Y-53626071D01*
X103930404Y-53702261D01*
X103930404Y-53892738D01*
X103892309Y-53968928D01*
X103854214Y-54007023D01*
X103803404Y-65823952D02*
X103003404Y-65823952D01*
X103003404Y-65290619D02*
X103003404Y-65138238D01*
X103041500Y-65062047D01*
X103117690Y-64985857D01*
X103270071Y-64947761D01*
X103536738Y-64947761D01*
X103689119Y-64985857D01*
X103765309Y-65062047D01*
X103803404Y-65138238D01*
X103803404Y-65290619D01*
X103765309Y-65366809D01*
X103689119Y-65443000D01*
X103536738Y-65481095D01*
X103270071Y-65481095D01*
X103117690Y-65443000D01*
X103041500Y-65366809D01*
X103003404Y-65290619D01*
X103803404Y-64185857D02*
X103803404Y-64643000D01*
X103803404Y-64414428D02*
X103003404Y-64414428D01*
X103117690Y-64490619D01*
X103193880Y-64566809D01*
X103231976Y-64643000D01*
X103003404Y-63919190D02*
X103003404Y-63423952D01*
X103308166Y-63690619D01*
X103308166Y-63576333D01*
X103346261Y-63500142D01*
X103384357Y-63462047D01*
X103460547Y-63423952D01*
X103651023Y-63423952D01*
X103727214Y-63462047D01*
X103765309Y-63500142D01*
X103803404Y-63576333D01*
X103803404Y-63804904D01*
X103765309Y-63881095D01*
X103727214Y-63919190D01*
X98659904Y-35661452D02*
X97859904Y-35661452D01*
X97859904Y-35128119D02*
X97859904Y-34975738D01*
X97898000Y-34899547D01*
X97974190Y-34823357D01*
X98126571Y-34785261D01*
X98393238Y-34785261D01*
X98545619Y-34823357D01*
X98621809Y-34899547D01*
X98659904Y-34975738D01*
X98659904Y-35128119D01*
X98621809Y-35204309D01*
X98545619Y-35280500D01*
X98393238Y-35318595D01*
X98126571Y-35318595D01*
X97974190Y-35280500D01*
X97898000Y-35204309D01*
X97859904Y-35128119D01*
X98659904Y-34023357D02*
X98659904Y-34480500D01*
X98659904Y-34251928D02*
X97859904Y-34251928D01*
X97974190Y-34328119D01*
X98050380Y-34404309D01*
X98088476Y-34480500D01*
X98202761Y-33566214D02*
X98164666Y-33642404D01*
X98126571Y-33680500D01*
X98050380Y-33718595D01*
X98012285Y-33718595D01*
X97936095Y-33680500D01*
X97898000Y-33642404D01*
X97859904Y-33566214D01*
X97859904Y-33413833D01*
X97898000Y-33337642D01*
X97936095Y-33299547D01*
X98012285Y-33261452D01*
X98050380Y-33261452D01*
X98126571Y-33299547D01*
X98164666Y-33337642D01*
X98202761Y-33413833D01*
X98202761Y-33566214D01*
X98240857Y-33642404D01*
X98278952Y-33680500D01*
X98355142Y-33718595D01*
X98507523Y-33718595D01*
X98583714Y-33680500D01*
X98621809Y-33642404D01*
X98659904Y-33566214D01*
X98659904Y-33413833D01*
X98621809Y-33337642D01*
X98583714Y-33299547D01*
X98507523Y-33261452D01*
X98355142Y-33261452D01*
X98278952Y-33299547D01*
X98240857Y-33337642D01*
X98202761Y-33413833D01*
X101231738Y-32886642D02*
X101841261Y-32886642D01*
X99009238Y-45523142D02*
X99618761Y-45523142D01*
X99314000Y-45827904D02*
X99314000Y-45218380D01*
X101422238Y-45459642D02*
X102031761Y-45459642D01*
X98945738Y-32886642D02*
X99555261Y-32886642D01*
X99250500Y-33191404D02*
X99250500Y-32581880D01*
X103447857Y-74986857D02*
X103485952Y-74872571D01*
X103524047Y-74834476D01*
X103600238Y-74796380D01*
X103714523Y-74796380D01*
X103790714Y-74834476D01*
X103828809Y-74872571D01*
X103866904Y-74948761D01*
X103866904Y-75253523D01*
X103066904Y-75253523D01*
X103066904Y-74986857D01*
X103105000Y-74910666D01*
X103143095Y-74872571D01*
X103219285Y-74834476D01*
X103295476Y-74834476D01*
X103371666Y-74872571D01*
X103409761Y-74910666D01*
X103447857Y-74986857D01*
X103447857Y-75253523D01*
X103066904Y-74567809D02*
X103066904Y-74110666D01*
X103866904Y-74339238D02*
X103066904Y-74339238D01*
X103866904Y-73844000D02*
X103066904Y-73844000D01*
X103866904Y-73386857D01*
X103066904Y-73386857D01*
X103866904Y-72396380D02*
X103066904Y-72396380D01*
X103066904Y-71863047D02*
X103066904Y-71710666D01*
X103105000Y-71634476D01*
X103181190Y-71558285D01*
X103333571Y-71520190D01*
X103600238Y-71520190D01*
X103752619Y-71558285D01*
X103828809Y-71634476D01*
X103866904Y-71710666D01*
X103866904Y-71863047D01*
X103828809Y-71939238D01*
X103752619Y-72015428D01*
X103600238Y-72053523D01*
X103333571Y-72053523D01*
X103181190Y-72015428D01*
X103105000Y-71939238D01*
X103066904Y-71863047D01*
X103866904Y-70758285D02*
X103866904Y-71215428D01*
X103866904Y-70986857D02*
X103066904Y-70986857D01*
X103181190Y-71063047D01*
X103257380Y-71139238D01*
X103295476Y-71215428D01*
X103066904Y-70072571D02*
X103066904Y-70224952D01*
X103105000Y-70301142D01*
X103143095Y-70339238D01*
X103257380Y-70415428D01*
X103409761Y-70453523D01*
X103714523Y-70453523D01*
X103790714Y-70415428D01*
X103828809Y-70377333D01*
X103866904Y-70301142D01*
X103866904Y-70148761D01*
X103828809Y-70072571D01*
X103790714Y-70034476D01*
X103714523Y-69996380D01*
X103524047Y-69996380D01*
X103447857Y-70034476D01*
X103409761Y-70072571D01*
X103371666Y-70148761D01*
X103371666Y-70301142D01*
X103409761Y-70377333D01*
X103447857Y-70415428D01*
X103524047Y-70453523D01*
D11*
X100274380Y-65762095D02*
X99274380Y-65762095D01*
X99274380Y-65524000D01*
X99322000Y-65381142D01*
X99417238Y-65285904D01*
X99512476Y-65238285D01*
X99702952Y-65190666D01*
X99845809Y-65190666D01*
X100036285Y-65238285D01*
X100131523Y-65285904D01*
X100226761Y-65381142D01*
X100274380Y-65524000D01*
X100274380Y-65762095D01*
X100274380Y-64238285D02*
X100274380Y-64809714D01*
X100274380Y-64524000D02*
X99274380Y-64524000D01*
X99417238Y-64619238D01*
X99512476Y-64714476D01*
X99560095Y-64809714D01*
X101321404Y-36583880D02*
X101321404Y-35583880D01*
X101559500Y-35583880D01*
X101702357Y-35631500D01*
X101797595Y-35726738D01*
X101845214Y-35821976D01*
X101892833Y-36012452D01*
X101892833Y-36155309D01*
X101845214Y-36345785D01*
X101797595Y-36441023D01*
X101702357Y-36536261D01*
X101559500Y-36583880D01*
X101321404Y-36583880D01*
X102273785Y-35679119D02*
X102321404Y-35631500D01*
X102416642Y-35583880D01*
X102654738Y-35583880D01*
X102749976Y-35631500D01*
X102797595Y-35679119D01*
X102845214Y-35774357D01*
X102845214Y-35869595D01*
X102797595Y-36012452D01*
X102226166Y-36583880D01*
X102845214Y-36583880D01*
X101369904Y-49855380D02*
X101369904Y-48855380D01*
X101608000Y-48855380D01*
X101750857Y-48903000D01*
X101846095Y-48998238D01*
X101893714Y-49093476D01*
X101941333Y-49283952D01*
X101941333Y-49426809D01*
X101893714Y-49617285D01*
X101846095Y-49712523D01*
X101750857Y-49807761D01*
X101608000Y-49855380D01*
X101369904Y-49855380D01*
X102274666Y-48855380D02*
X102893714Y-48855380D01*
X102560380Y-49236333D01*
X102703238Y-49236333D01*
X102798476Y-49283952D01*
X102846095Y-49331571D01*
X102893714Y-49426809D01*
X102893714Y-49664904D01*
X102846095Y-49760142D01*
X102798476Y-49807761D01*
X102703238Y-49855380D01*
X102417523Y-49855380D01*
X102322285Y-49807761D01*
X102274666Y-49760142D01*
D12*
X102496500Y-66264000D02*
X102496500Y-63404000D01*
X100576500Y-63404000D02*
X100576500Y-66264000D01*
X100576500Y-66264000D02*
X102496500Y-66264000D01*
X97229000Y-71448000D02*
X97719000Y-70958000D01*
X102669000Y-71448000D02*
X102179000Y-70958000D01*
X97229000Y-74348000D02*
X97719000Y-74838000D01*
X97229000Y-74348000D02*
X97229000Y-71448000D01*
X102669000Y-74348000D02*
X102179000Y-74838000D01*
X102669000Y-74348000D02*
X102669000Y-71448000D01*
X100989000Y-75618000D02*
X98909000Y-75618000D01*
X100989000Y-70178000D02*
X98909000Y-70178000D01*
X100989000Y-59044500D02*
X98909000Y-59044500D01*
X97229000Y-57774500D02*
X97719000Y-58264500D01*
X102669000Y-54874500D02*
X102179000Y-54384500D01*
X97229000Y-57774500D02*
X97229000Y-54874500D01*
X102669000Y-57774500D02*
X102179000Y-58264500D01*
X100989000Y-53604500D02*
X98909000Y-53604500D01*
X97229000Y-54874500D02*
X97719000Y-54384500D01*
X102669000Y-57774500D02*
X102669000Y-54874500D01*
X101059500Y-35377000D02*
X103919500Y-35377000D01*
X103919500Y-35377000D02*
X103919500Y-33457000D01*
X103919500Y-33457000D02*
X101059500Y-33457000D01*
X102954500Y-31510000D02*
X102954500Y-28010000D01*
X99204500Y-27400000D02*
X99204500Y-27200000D01*
X101004500Y-28010000D02*
X101004500Y-27400000D01*
X98904500Y-27200000D02*
X98904500Y-27400000D01*
X97144500Y-27100000D02*
X97144500Y-28350000D01*
X99204500Y-27300000D02*
X98904500Y-27300000D01*
X97444500Y-27400000D02*
X97444500Y-32120000D01*
X97444500Y-32120000D02*
X103564500Y-32120000D01*
X98054500Y-31510000D02*
X102954500Y-31510000D01*
X103564500Y-32120000D02*
X103564500Y-27400000D01*
X99204500Y-27200000D02*
X98904500Y-27200000D01*
X100004500Y-27400000D02*
X100004500Y-28010000D01*
X100404500Y-31510000D02*
X100404500Y-31010000D01*
X97444500Y-28710000D02*
X98054500Y-28710000D01*
X98394500Y-27100000D02*
X97144500Y-27100000D01*
X103564500Y-27400000D02*
X97444500Y-27400000D01*
X100004500Y-28010000D02*
X98054500Y-28010000D01*
X100404500Y-31010000D02*
X100604500Y-31010000D01*
X98054500Y-28010000D02*
X98054500Y-31510000D01*
X102954500Y-28010000D02*
X101004500Y-28010000D01*
X103564500Y-30010000D02*
X102954500Y-30010000D01*
X97444500Y-30010000D02*
X98054500Y-30010000D01*
X100604500Y-31010000D02*
X100604500Y-31510000D01*
X100504500Y-31510000D02*
X100504500Y-31010000D01*
X103564500Y-28710000D02*
X102954500Y-28710000D01*
X98904500Y-39963500D02*
X98904500Y-40163500D01*
X103564500Y-44883500D02*
X103564500Y-40163500D01*
X99204500Y-40063500D02*
X98904500Y-40063500D01*
X102954500Y-44273500D02*
X102954500Y-40773500D01*
X97444500Y-44883500D02*
X103564500Y-44883500D01*
X103564500Y-40163500D02*
X97444500Y-40163500D01*
X97144500Y-39863500D02*
X97144500Y-41113500D01*
X103564500Y-42773500D02*
X102954500Y-42773500D01*
X100004500Y-40773500D02*
X98054500Y-40773500D01*
X100404500Y-43773500D02*
X100604500Y-43773500D01*
X98054500Y-40773500D02*
X98054500Y-44273500D01*
X101004500Y-40773500D02*
X101004500Y-40163500D01*
X98394500Y-39863500D02*
X97144500Y-39863500D01*
X100404500Y-44273500D02*
X100404500Y-43773500D01*
X98054500Y-44273500D02*
X102954500Y-44273500D01*
X103564500Y-41473500D02*
X102954500Y-41473500D01*
X100604500Y-43773500D02*
X100604500Y-44273500D01*
X99204500Y-40163500D02*
X99204500Y-39963500D01*
X97444500Y-42773500D02*
X98054500Y-42773500D01*
X97444500Y-40163500D02*
X97444500Y-44883500D01*
X99204500Y-39963500D02*
X98904500Y-39963500D01*
X100004500Y-40163500D02*
X100004500Y-40773500D01*
X102954500Y-40773500D02*
X101004500Y-40773500D01*
X97444500Y-41473500D02*
X98054500Y-41473500D01*
X100504500Y-44273500D02*
X100504500Y-43773500D01*
X103968000Y-46728500D02*
X101108000Y-46728500D01*
X101108000Y-48648500D02*
X103968000Y-48648500D01*
X103968000Y-48648500D02*
X103968000Y-46728500D01*
M02*
